<svg xmlns="http://www.w3.org/2000/svg" width="27.415" height="16.536" viewBox="0 0 27.415 16.536">
  <path id="Path" d="M.586.586a2,2,0,0,1,2.7-.117l.127.117L13.707,10.879,24,.586A2,2,0,0,1,26.7.469l.127.117a2,2,0,0,1,.117,2.7l-.117.127L13.707,16.536.586,3.414A2,2,0,0,1,.586.586Z" fill="#fff"/>
</svg>
